Final
…
             Maddie Drebing 

Is there a discernible relationship between the total number of goals and assists in the Premier Lacrosse League (PLL)?

1. Introduction

This study aims to best understand the relationship between goals and assists in The PLL (The Premier Lacrosse League). Every one loves watching highlight reel goals but what leads up to that point? This project will dive deeper into the relationship of goals and assists.

To address this question I created a data set from downloading the 2023 PLL season stats off of their website. This data set includes key information including all of the players in the league, their position, team, points, goals, assists, and shots.

2. Exploratory Data Analysis

I took the original data set and condensed it to relevant data, it now contains the players information including their: name, position, team, points, goals, and assists. Then I organized the data to show the points in a descending order as well as the maximum, minimum, mean, and median of both goals and assists.

# A tibble: 211 × 7
   `First Name` `Last Name` Position Team       Points `Total Goals` Assists
   <chr>        <chr>       <chr>    <chr>       <dbl>         <dbl>   <dbl>
 1 Marcus       Holman      A        Cannons        44            30      13
 2 Connor       Fields      A        Archers        39            28      11
 3 Mac          O'Keefe     A        Archers        35            26       5
 4 Ryder        Garnsey     A        Redwoods       36            25      11
 5 Chris        Gray        A        Atlas          37            22      13
 6 Eric         Law         A        Atlas          27            22       5
 7 Asher        Nolting     A        Cannons        41            21      20
 8 Wes          Berg        A        Redwoods       23            21       2
 9 Kieran       McArdle     A        Waterdogs      34            20      14
10 Tucker       Dordevic    M        Whipsnakes     26            19       2
# ℹ 201 more rows
…
